%!PS-Adobe-3.0 EPSF-3.0
%%Title: hydrogen.eps
%%Creator: matplotlib version 2.2.2, http://matplotlib.org/
%%CreationDate: Wed Apr 11 09:43:29 2018
%%Orientation: portrait
%%BoundingBox: 198 288 414 504
%%EndComments
%%BeginProlog
/mpldict 8 dict def
mpldict begin
/m { moveto } bind def
/l { lineto } bind def
/r { rlineto } bind def
/c { curveto } bind def
/cl { closepath } bind def
/box {
m
1 index 0 r
0 exch r
neg 0 r
cl
} bind def
/clipbox {
box
clip
newpath
} bind def
%!PS-Adobe-3.0 Resource-Font
%%Title: DejaVu Serif
%%Copyright: Copyright (c) 2003 by Bitstream, Inc. All Rights Reserved. DejaVu changes are in public domain 
%%Creator: Converted from TrueType to type 3 by PPR
25 dict begin
/_d{bind def}bind def
/_m{moveto}_d
/_l{lineto}_d
/_cl{closepath eofill}_d
/_c{curveto}_d
/_sc{7 -1 roll{setcachedevice}{pop pop pop pop pop pop}ifelse}_d
/_e{exec}_d
/FontName /DejaVuSerif def
/PaintType 0 def
/FontMatrix[.001 0 0 .001 0 0]def
/FontBBox[-770 -347 2105 1109]def
/FontType 3 def
/Encoding [ /period /zero /two /four /five /minus ] def
/FontInfo 10 dict dup begin
/FamilyName (DejaVu Serif) def
/FullName (DejaVu Serif) def
/Notice (Copyright (c) 2003 by Bitstream, Inc. All Rights Reserved. DejaVu changes are in public domain ) def
/Weight (Book) def
/Version (Version 2.35) def
/ItalicAngle 0.0 def
/isFixedPitch false def
/UnderlinePosition -130 def
/UnderlineThickness 90 def
end readonly def
/CharStrings 7 dict dup begin
/.notdef 0 def
/period{318 0 94 -13 224 116 _sc
94 51 _m
94 69 100 84 112 97 _c
124 109 140 116 159 116 _c
177 116 192 109 205 97 _c
217 84 224 69 224 51 _c
224 33 217 17 205 5 _c
192 -7 177 -13 159 -13 _c
140 -13 124 -7 112 5 _c
100 17 94 32 94 51 _c
_cl}_d
/zero{636 0 66 -13 570 742 _sc
318 34 _m
368 34 405 61 430 116 _c
454 170 467 253 467 364 _c
467 474 454 557 430 612 _c
405 666 368 694 318 694 _c
268 694 230 666 206 612 _c
181 557 169 474 169 364 _c
169 253 181 170 206 116 _c
230 61 268 34 318 34 _c
318 -13 _m
238 -13 176 20 132 86 _c
88 152 66 244 66 364 _c
66 483 88 576 132 642 _c
176 708 238 742 318 742 _c
397 742 459 708 503 642 _c
547 576 570 483 570 364 _c
570 244 547 152 503 86 _c
459 20 397 -13 318 -13 _c
_cl}_d
/two{{636 0 68 0 538 742 _sc
128 555 _m
73 555 _l
73 685 _l
107 703 142 717 178 727 _c
213 737 248 742 282 742 _c
358 742 418 723 462 687 _c
506 650 528 600 528 537 _c
528 465 478 380 378 281 _c
370 273 365 268 361 264 _c
177 80 _l
481 80 _l
481 170 _l
538 170 _l
538 0 _l
68 0 _l
68 53 _l
289 274 _l
337 322 372 367 393 408 _c
414 449 425 492 425 537 _c
}_e{425 586 412 624 386 652 _c
360 680 325 694 281 694 _c
234 694 198 682 173 659 _c
147 636 132 601 128 555 _c
_cl}_e}_d
/four{636 0 31 0 586 742 _sc
349 247 _m
349 635 _l
100 247 _l
349 247 _l
564 0 _m
232 0 _l
232 52 _l
349 52 _l
349 195 _l
31 195 _l
31 248 _l
350 742 _l
447 742 _l
447 247 _l
586 247 _l
586 195 _l
447 195 _l
447 52 _l
564 52 _l
564 0 _l
_cl}_d
/five{{636 0 85 -13 559 729 _sc
503 729 _m
503 649 _l
169 649 _l
169 440 _l
185 452 205 460 228 466 _c
250 472 276 475 304 475 _c
382 475 444 453 490 409 _c
536 365 559 306 559 231 _c
559 153 536 93 490 51 _c
444 8 379 -13 296 -13 _c
262 -13 228 -9 193 -1 _c
157 6 121 18 85 35 _c
85 177 _l
140 177 _l
143 130 158 94 184 70 _c
210 46 248 34 296 34 _c
}_e{347 34 386 51 414 85 _c
442 119 456 167 456 231 _c
456 294 442 342 415 376 _c
387 410 348 427 296 427 _c
266 427 240 421 218 411 _c
196 401 176 385 159 363 _c
117 363 _l
117 729 _l
503 729 _l
_cl}_e}_d
/minus{838 0 106 274 732 353 _sc
106 353 _m
732 353 _l
732 274 _l
106 274 _l
106 353 _l
_cl}_d
end readonly def

/BuildGlyph
 {exch begin
 CharStrings exch
 2 copy known not{pop /.notdef}if
 true 3 1 roll get exec
 end}_d

/BuildChar {
 1 index /Encoding get exch get
 1 index /BuildGlyph get exec
}_d

FontName currentdict end definefont pop
end
%%EndProlog
mpldict begin
198 288 translate
216 216 0 0 clipbox
gsave
0 0 m
216 0 l
216 216 l
0 216 l
cl
1.000 setgray
fill
grestore
gsave
34.163125 28.085 m
203.04 28.085 l
203.04 203.04 l
34.163125 203.04 l
cl
1.000 setgray
fill
grestore
0.500 setlinewidth
1 setlinejoin
0 setlinecap
[0.5 0.825] 0 setdash
0.000 setgray
gsave
168.9 175 34.16 28.09 clipbox
70.593769 28.085 m
70.593769 203.04 l
stroke
grestore
[] 0 setdash
gsave
/o {
gsave
newpath
translate
0.5 setlinewidth
1 setlinejoin
0 setlinecap
0 0 m
0 7 l

gsave
0.000 setgray
fill
grestore
stroke
grestore
} bind def
70.5938 28.085 o
grestore
gsave
/o {
gsave
newpath
translate
0.5 setlinewidth
1 setlinejoin
0 setlinecap
0 0 m
0 -7 l

gsave
0.000 setgray
fill
grestore
stroke
grestore
} bind def
70.5938 203.04 o
grestore
/DejaVuSerif findfont
12.000 scalefont
setfont
gsave
56.015644 15.460000 translate
0.000000 rotate
0.000000 0.000000 m /minus glyphshow
10.054688 0.000000 m /two glyphshow
17.689453 0.000000 m /period glyphshow
21.503906 0.000000 m /five glyphshow
grestore
[0.5 0.825] 0 setdash
gsave
168.9 175 34.16 28.09 clipbox
118.582234 28.085 m
118.582234 203.04 l
stroke
grestore
[] 0 setdash
gsave
/o {
gsave
newpath
translate
0.5 setlinewidth
1 setlinejoin
0 setlinecap
0 0 m
0 7 l

gsave
0.000 setgray
fill
grestore
stroke
grestore
} bind def
118.582 28.085 o
grestore
gsave
/o {
gsave
newpath
translate
0.5 setlinewidth
1 setlinejoin
0 setlinecap
0 0 m
0 -7 l

gsave
0.000 setgray
fill
grestore
stroke
grestore
} bind def
118.582 203.04 o
grestore
gsave
109.035359 15.460000 translate
0.000000 rotate
0.000000 0.000000 m /zero glyphshow
7.634766 0.000000 m /period glyphshow
11.449219 0.000000 m /zero glyphshow
grestore
[0.5 0.825] 0 setdash
gsave
168.9 175 34.16 28.09 clipbox
166.570699 28.085 m
166.570699 203.04 l
stroke
grestore
[] 0 setdash
gsave
/o {
gsave
newpath
translate
0.5 setlinewidth
1 setlinejoin
0 setlinecap
0 0 m
0 7 l

gsave
0.000 setgray
fill
grestore
stroke
grestore
} bind def
166.571 28.085 o
grestore
gsave
/o {
gsave
newpath
translate
0.5 setlinewidth
1 setlinejoin
0 setlinecap
0 0 m
0 -7 l

gsave
0.000 setgray
fill
grestore
stroke
grestore
} bind def
166.571 203.04 o
grestore
gsave
157.023824 15.460000 translate
0.000000 rotate
0.000000 0.000000 m /two glyphshow
7.634766 0.000000 m /period glyphshow
11.449219 0.000000 m /five glyphshow
grestore
gsave
/o {
gsave
newpath
translate
0.5 setlinewidth
1 setlinejoin
0 setlinecap
0 0 m
0 3 l

gsave
0.000 setgray
fill
grestore
stroke
grestore
} bind def
34.6024 28.085 o
grestore
gsave
/o {
gsave
newpath
translate
0.5 setlinewidth
1 setlinejoin
0 setlinecap
0 0 m
0 -3 l

gsave
0.000 setgray
fill
grestore
stroke
grestore
} bind def
34.6024 203.04 o
grestore
gsave
/o {
gsave
newpath
translate
0.5 setlinewidth
1 setlinejoin
0 setlinecap
0 0 m
0 3 l

gsave
0.000 setgray
fill
grestore
stroke
grestore
} bind def
46.5995 28.085 o
grestore
gsave
/o {
gsave
newpath
translate
0.5 setlinewidth
1 setlinejoin
0 setlinecap
0 0 m
0 -3 l

gsave
0.000 setgray
fill
grestore
stroke
grestore
} bind def
46.5995 203.04 o
grestore
gsave
/o {
gsave
newpath
translate
0.5 setlinewidth
1 setlinejoin
0 setlinecap
0 0 m
0 3 l

gsave
0.000 setgray
fill
grestore
stroke
grestore
} bind def
58.5967 28.085 o
grestore
gsave
/o {
gsave
newpath
translate
0.5 setlinewidth
1 setlinejoin
0 setlinecap
0 0 m
0 -3 l

gsave
0.000 setgray
fill
grestore
stroke
grestore
} bind def
58.5967 203.04 o
grestore
gsave
/o {
gsave
newpath
translate
0.5 setlinewidth
1 setlinejoin
0 setlinecap
0 0 m
0 3 l

gsave
0.000 setgray
fill
grestore
stroke
grestore
} bind def
82.5909 28.085 o
grestore
gsave
/o {
gsave
newpath
translate
0.5 setlinewidth
1 setlinejoin
0 setlinecap
0 0 m
0 -3 l

gsave
0.000 setgray
fill
grestore
stroke
grestore
} bind def
82.5909 203.04 o
grestore
gsave
/o {
gsave
newpath
translate
0.5 setlinewidth
1 setlinejoin
0 setlinecap
0 0 m
0 3 l

gsave
0.000 setgray
fill
grestore
stroke
grestore
} bind def
94.588 28.085 o
grestore
gsave
/o {
gsave
newpath
translate
0.5 setlinewidth
1 setlinejoin
0 setlinecap
0 0 m
0 -3 l

gsave
0.000 setgray
fill
grestore
stroke
grestore
} bind def
94.588 203.04 o
grestore
gsave
/o {
gsave
newpath
translate
0.5 setlinewidth
1 setlinejoin
0 setlinecap
0 0 m
0 3 l

gsave
0.000 setgray
fill
grestore
stroke
grestore
} bind def
106.585 28.085 o
grestore
gsave
/o {
gsave
newpath
translate
0.5 setlinewidth
1 setlinejoin
0 setlinecap
0 0 m
0 -3 l

gsave
0.000 setgray
fill
grestore
stroke
grestore
} bind def
106.585 203.04 o
grestore
gsave
/o {
gsave
newpath
translate
0.5 setlinewidth
1 setlinejoin
0 setlinecap
0 0 m
0 3 l

gsave
0.000 setgray
fill
grestore
stroke
grestore
} bind def
130.579 28.085 o
grestore
gsave
/o {
gsave
newpath
translate
0.5 setlinewidth
1 setlinejoin
0 setlinecap
0 0 m
0 -3 l

gsave
0.000 setgray
fill
grestore
stroke
grestore
} bind def
130.579 203.04 o
grestore
gsave
/o {
gsave
newpath
translate
0.5 setlinewidth
1 setlinejoin
0 setlinecap
0 0 m
0 3 l

gsave
0.000 setgray
fill
grestore
stroke
grestore
} bind def
142.576 28.085 o
grestore
gsave
/o {
gsave
newpath
translate
0.5 setlinewidth
1 setlinejoin
0 setlinecap
0 0 m
0 -3 l

gsave
0.000 setgray
fill
grestore
stroke
grestore
} bind def
142.576 203.04 o
grestore
gsave
/o {
gsave
newpath
translate
0.5 setlinewidth
1 setlinejoin
0 setlinecap
0 0 m
0 3 l

gsave
0.000 setgray
fill
grestore
stroke
grestore
} bind def
154.574 28.085 o
grestore
gsave
/o {
gsave
newpath
translate
0.5 setlinewidth
1 setlinejoin
0 setlinecap
0 0 m
0 -3 l

gsave
0.000 setgray
fill
grestore
stroke
grestore
} bind def
154.574 203.04 o
grestore
gsave
/o {
gsave
newpath
translate
0.5 setlinewidth
1 setlinejoin
0 setlinecap
0 0 m
0 3 l

gsave
0.000 setgray
fill
grestore
stroke
grestore
} bind def
178.568 28.085 o
grestore
gsave
/o {
gsave
newpath
translate
0.5 setlinewidth
1 setlinejoin
0 setlinecap
0 0 m
0 -3 l

gsave
0.000 setgray
fill
grestore
stroke
grestore
} bind def
178.568 203.04 o
grestore
gsave
/o {
gsave
newpath
translate
0.5 setlinewidth
1 setlinejoin
0 setlinecap
0 0 m
0 3 l

gsave
0.000 setgray
fill
grestore
stroke
grestore
} bind def
190.565 28.085 o
grestore
gsave
/o {
gsave
newpath
translate
0.5 setlinewidth
1 setlinejoin
0 setlinecap
0 0 m
0 -3 l

gsave
0.000 setgray
fill
grestore
stroke
grestore
} bind def
190.565 203.04 o
grestore
gsave
/o {
gsave
newpath
translate
0.5 setlinewidth
1 setlinejoin
0 setlinecap
0 0 m
0 3 l

gsave
0.000 setgray
fill
grestore
stroke
grestore
} bind def
202.562 28.085 o
grestore
gsave
/o {
gsave
newpath
translate
0.5 setlinewidth
1 setlinejoin
0 setlinecap
0 0 m
0 -3 l

gsave
0.000 setgray
fill
grestore
stroke
grestore
} bind def
202.562 203.04 o
grestore
[0.5 0.825] 0 setdash
gsave
168.9 175 34.16 28.09 clipbox
34.163125 36.027489 m
203.04 36.027489 l
stroke
grestore
[] 0 setdash
gsave
/o {
gsave
newpath
translate
0.5 setlinewidth
1 setlinejoin
0 setlinecap
0 0 m
7 0 l

gsave
0.000 setgray
fill
grestore
stroke
grestore
} bind def
34.1631 36.0275 o
grestore
gsave
/o {
gsave
newpath
translate
0.5 setlinewidth
1 setlinejoin
0 setlinecap
0 0 m
-7 0 l

gsave
0.000 setgray
fill
grestore
stroke
grestore
} bind def
203.04 36.0275 o
grestore
gsave
12.960000 31.464989 translate
0.000000 rotate
0.000000 0.000000 m /minus glyphshow
10.054688 0.000000 m /four glyphshow
grestore
[0.5 0.825] 0 setdash
gsave
168.9 175 34.16 28.09 clipbox
34.163125 75.794994 m
203.04 75.794994 l
stroke
grestore
[] 0 setdash
gsave
/o {
gsave
newpath
translate
0.5 setlinewidth
1 setlinejoin
0 setlinecap
0 0 m
7 0 l

gsave
0.000 setgray
fill
grestore
stroke
grestore
} bind def
34.1631 75.795 o
grestore
gsave
/o {
gsave
newpath
translate
0.5 setlinewidth
1 setlinejoin
0 setlinecap
0 0 m
-7 0 l

gsave
0.000 setgray
fill
grestore
stroke
grestore
} bind def
203.04 75.795 o
grestore
gsave
12.960000 71.232494 translate
0.000000 rotate
0.000000 0.000000 m /minus glyphshow
10.054688 0.000000 m /two glyphshow
grestore
[0.5 0.825] 0 setdash
gsave
168.9 175 34.16 28.09 clipbox
34.163125 115.5625 m
203.04 115.5625 l
stroke
grestore
[] 0 setdash
gsave
/o {
gsave
newpath
translate
0.5 setlinewidth
1 setlinejoin
0 setlinecap
0 0 m
7 0 l

gsave
0.000 setgray
fill
grestore
stroke
grestore
} bind def
34.1631 115.562 o
grestore
gsave
/o {
gsave
newpath
translate
0.5 setlinewidth
1 setlinejoin
0 setlinecap
0 0 m
-7 0 l

gsave
0.000 setgray
fill
grestore
stroke
grestore
} bind def
203.04 115.562 o
grestore
gsave
23.022500 111.000000 translate
0.000000 rotate
0.000000 0.000000 m /zero glyphshow
grestore
[0.5 0.825] 0 setdash
gsave
168.9 175 34.16 28.09 clipbox
34.163125 155.330006 m
203.04 155.330006 l
stroke
grestore
[] 0 setdash
gsave
/o {
gsave
newpath
translate
0.5 setlinewidth
1 setlinejoin
0 setlinecap
0 0 m
7 0 l

gsave
0.000 setgray
fill
grestore
stroke
grestore
} bind def
34.1631 155.33 o
grestore
gsave
/o {
gsave
newpath
translate
0.5 setlinewidth
1 setlinejoin
0 setlinecap
0 0 m
-7 0 l

gsave
0.000 setgray
fill
grestore
stroke
grestore
} bind def
203.04 155.33 o
grestore
gsave
23.022500 150.767506 translate
0.000000 rotate
0.000000 0.000000 m /two glyphshow
grestore
[0.5 0.825] 0 setdash
gsave
168.9 175 34.16 28.09 clipbox
34.163125 195.097511 m
203.04 195.097511 l
stroke
grestore
[] 0 setdash
gsave
/o {
gsave
newpath
translate
0.5 setlinewidth
1 setlinejoin
0 setlinecap
0 0 m
7 0 l

gsave
0.000 setgray
fill
grestore
stroke
grestore
} bind def
34.1631 195.098 o
grestore
gsave
/o {
gsave
newpath
translate
0.5 setlinewidth
1 setlinejoin
0 setlinecap
0 0 m
-7 0 l

gsave
0.000 setgray
fill
grestore
stroke
grestore
} bind def
203.04 195.098 o
grestore
gsave
23.022500 190.535011 translate
0.000000 rotate
0.000000 0.000000 m /four glyphshow
grestore
gsave
/o {
gsave
newpath
translate
0.5 setlinewidth
1 setlinejoin
0 setlinecap
0 0 m
3 0 l

gsave
0.000 setgray
fill
grestore
stroke
grestore
} bind def
34.1631 45.9694 o
grestore
gsave
/o {
gsave
newpath
translate
0.5 setlinewidth
1 setlinejoin
0 setlinecap
0 0 m
-3 0 l

gsave
0.000 setgray
fill
grestore
stroke
grestore
} bind def
203.04 45.9694 o
grestore
gsave
/o {
gsave
newpath
translate
0.5 setlinewidth
1 setlinejoin
0 setlinecap
0 0 m
3 0 l

gsave
0.000 setgray
fill
grestore
stroke
grestore
} bind def
34.1631 55.9112 o
grestore
gsave
/o {
gsave
newpath
translate
0.5 setlinewidth
1 setlinejoin
0 setlinecap
0 0 m
-3 0 l

gsave
0.000 setgray
fill
grestore
stroke
grestore
} bind def
203.04 55.9112 o
grestore
gsave
/o {
gsave
newpath
translate
0.5 setlinewidth
1 setlinejoin
0 setlinecap
0 0 m
3 0 l

gsave
0.000 setgray
fill
grestore
stroke
grestore
} bind def
34.1631 65.8531 o
grestore
gsave
/o {
gsave
newpath
translate
0.5 setlinewidth
1 setlinejoin
0 setlinecap
0 0 m
-3 0 l

gsave
0.000 setgray
fill
grestore
stroke
grestore
} bind def
203.04 65.8531 o
grestore
gsave
/o {
gsave
newpath
translate
0.5 setlinewidth
1 setlinejoin
0 setlinecap
0 0 m
3 0 l

gsave
0.000 setgray
fill
grestore
stroke
grestore
} bind def
34.1631 85.7369 o
grestore
gsave
/o {
gsave
newpath
translate
0.5 setlinewidth
1 setlinejoin
0 setlinecap
0 0 m
-3 0 l

gsave
0.000 setgray
fill
grestore
stroke
grestore
} bind def
203.04 85.7369 o
grestore
gsave
/o {
gsave
newpath
translate
0.5 setlinewidth
1 setlinejoin
0 setlinecap
0 0 m
3 0 l

gsave
0.000 setgray
fill
grestore
stroke
grestore
} bind def
34.1631 95.6787 o
grestore
gsave
/o {
gsave
newpath
translate
0.5 setlinewidth
1 setlinejoin
0 setlinecap
0 0 m
-3 0 l

gsave
0.000 setgray
fill
grestore
stroke
grestore
} bind def
203.04 95.6787 o
grestore
gsave
/o {
gsave
newpath
translate
0.5 setlinewidth
1 setlinejoin
0 setlinecap
0 0 m
3 0 l

gsave
0.000 setgray
fill
grestore
stroke
grestore
} bind def
34.1631 105.621 o
grestore
gsave
/o {
gsave
newpath
translate
0.5 setlinewidth
1 setlinejoin
0 setlinecap
0 0 m
-3 0 l

gsave
0.000 setgray
fill
grestore
stroke
grestore
} bind def
203.04 105.621 o
grestore
gsave
/o {
gsave
newpath
translate
0.5 setlinewidth
1 setlinejoin
0 setlinecap
0 0 m
3 0 l

gsave
0.000 setgray
fill
grestore
stroke
grestore
} bind def
34.1631 125.504 o
grestore
gsave
/o {
gsave
newpath
translate
0.5 setlinewidth
1 setlinejoin
0 setlinecap
0 0 m
-3 0 l

gsave
0.000 setgray
fill
grestore
stroke
grestore
} bind def
203.04 125.504 o
grestore
gsave
/o {
gsave
newpath
translate
0.5 setlinewidth
1 setlinejoin
0 setlinecap
0 0 m
3 0 l

gsave
0.000 setgray
fill
grestore
stroke
grestore
} bind def
34.1631 135.446 o
grestore
gsave
/o {
gsave
newpath
translate
0.5 setlinewidth
1 setlinejoin
0 setlinecap
0 0 m
-3 0 l

gsave
0.000 setgray
fill
grestore
stroke
grestore
} bind def
203.04 135.446 o
grestore
gsave
/o {
gsave
newpath
translate
0.5 setlinewidth
1 setlinejoin
0 setlinecap
0 0 m
3 0 l

gsave
0.000 setgray
fill
grestore
stroke
grestore
} bind def
34.1631 145.388 o
grestore
gsave
/o {
gsave
newpath
translate
0.5 setlinewidth
1 setlinejoin
0 setlinecap
0 0 m
-3 0 l

gsave
0.000 setgray
fill
grestore
stroke
grestore
} bind def
203.04 145.388 o
grestore
gsave
/o {
gsave
newpath
translate
0.5 setlinewidth
1 setlinejoin
0 setlinecap
0 0 m
3 0 l

gsave
0.000 setgray
fill
grestore
stroke
grestore
} bind def
34.1631 165.272 o
grestore
gsave
/o {
gsave
newpath
translate
0.5 setlinewidth
1 setlinejoin
0 setlinecap
0 0 m
-3 0 l

gsave
0.000 setgray
fill
grestore
stroke
grestore
} bind def
203.04 165.272 o
grestore
gsave
/o {
gsave
newpath
translate
0.5 setlinewidth
1 setlinejoin
0 setlinecap
0 0 m
3 0 l

gsave
0.000 setgray
fill
grestore
stroke
grestore
} bind def
34.1631 175.214 o
grestore
gsave
/o {
gsave
newpath
translate
0.5 setlinewidth
1 setlinejoin
0 setlinecap
0 0 m
-3 0 l

gsave
0.000 setgray
fill
grestore
stroke
grestore
} bind def
203.04 175.214 o
grestore
gsave
/o {
gsave
newpath
translate
0.5 setlinewidth
1 setlinejoin
0 setlinecap
0 0 m
3 0 l

gsave
0.000 setgray
fill
grestore
stroke
grestore
} bind def
34.1631 185.156 o
grestore
gsave
/o {
gsave
newpath
translate
0.5 setlinewidth
1 setlinejoin
0 setlinecap
0 0 m
-3 0 l

gsave
0.000 setgray
fill
grestore
stroke
grestore
} bind def
203.04 185.156 o
grestore
0.750 setlinewidth
2 setlinecap
gsave
168.9 175 34.16 28.09 clipbox
172.874985 171.802246 m
stroke
grestore
1.000 setlinewidth
0 setlinecap
gsave
168.9 175 34.16 28.09 clipbox
/o {
gsave
newpath
translate
1.0 setlinewidth
1 setlinejoin
0 setlinecap
0 -5 m
1.326016 -5 2.597899 -4.473168 3.535534 -3.535534 c
4.473168 -2.597899 5 -1.326016 5 0 c
5 1.326016 4.473168 2.597899 3.535534 3.535534 c
2.597899 4.473168 1.326016 5 0 5 c
-1.326016 5 -2.597899 4.473168 -3.535534 3.535534 c
-4.473168 2.597899 -5 1.326016 -5 0 c
-5 -1.326016 -4.473168 -2.597899 -3.535534 -3.535534 c
-2.597899 -4.473168 -1.326016 -5 0 -5 c
cl

gsave
0.000 setgray
fill
grestore
stroke
grestore
} bind def
172.875 171.802 o
grestore
0.750 setlinewidth
2 setlinecap
gsave
168.9 175 34.16 28.09 clipbox
64.289484 171.802246 m
stroke
grestore
1.000 setlinewidth
0 setlinecap
gsave
168.9 175 34.16 28.09 clipbox
/o {
gsave
newpath
translate
1.0 setlinewidth
1 setlinejoin
0 setlinecap
0 -5 m
1.326016 -5 2.597899 -4.473168 3.535534 -3.535534 c
4.473168 -2.597899 5 -1.326016 5 0 c
5 1.326016 4.473168 2.597899 3.535534 3.535534 c
2.597899 4.473168 1.326016 5 0 5 c
-1.326016 5 -2.597899 4.473168 -3.535534 3.535534 c
-4.473168 2.597899 -5 1.326016 -5 0 c
-5 -1.326016 -4.473168 -2.597899 -3.535534 -3.535534 c
-2.597899 -4.473168 -1.326016 -5 0 -5 c
cl

gsave
0.000 setgray
fill
grestore
stroke
grestore
} bind def
64.2895 171.802 o
grestore
0.750 setlinewidth
2 setlinecap
gsave
168.9 175 34.16 28.09 clipbox
44.416958 136.147676 m
stroke
grestore
1.000 setlinewidth
0 setlinecap
gsave
168.9 175 34.16 28.09 clipbox
/o {
gsave
newpath
translate
1.0 setlinewidth
1 setlinejoin
0 setlinecap
0 -5 m
1.326016 -5 2.597899 -4.473168 3.535534 -3.535534 c
4.473168 -2.597899 5 -1.326016 5 0 c
5 1.326016 4.473168 2.597899 3.535534 3.535534 c
2.597899 4.473168 1.326016 5 0 5 c
-1.326016 5 -2.597899 4.473168 -3.535534 3.535534 c
-4.473168 2.597899 -5 1.326016 -5 0 c
-5 -1.326016 -4.473168 -2.597899 -3.535534 -3.535534 c
-2.597899 -4.473168 -1.326016 -5 0 -5 c
cl

gsave
0.000 setgray
fill
grestore
stroke
grestore
} bind def
44.417 136.148 o
grestore
0.750 setlinewidth
2 setlinecap
gsave
168.9 175 34.16 28.09 clipbox
98.709708 38.737579 m
stroke
grestore
1.000 setlinewidth
0 setlinecap
gsave
168.9 175 34.16 28.09 clipbox
/o {
gsave
newpath
translate
1.0 setlinewidth
1 setlinejoin
0 setlinecap
0 -5 m
1.326016 -5 2.597899 -4.473168 3.535534 -3.535534 c
4.473168 -2.597899 5 -1.326016 5 0 c
5 1.326016 4.473168 2.597899 3.535534 3.535534 c
2.597899 4.473168 1.326016 5 0 5 c
-1.326016 5 -2.597899 4.473168 -3.535534 3.535534 c
-4.473168 2.597899 -5 1.326016 -5 0 c
-5 -1.326016 -4.473168 -2.597899 -3.535534 -3.535534 c
-2.597899 -4.473168 -1.326016 -5 0 -5 c
cl

gsave
0.000 setgray
fill
grestore
stroke
grestore
} bind def
98.7097 38.7376 o
grestore
0.750 setlinewidth
2 setlinecap
gsave
168.9 175 34.16 28.09 clipbox
138.45476 38.737579 m
stroke
grestore
1.000 setlinewidth
0 setlinecap
gsave
168.9 175 34.16 28.09 clipbox
/o {
gsave
newpath
translate
1.0 setlinewidth
1 setlinejoin
0 setlinecap
0 -5 m
1.326016 -5 2.597899 -4.473168 3.535534 -3.535534 c
4.473168 -2.597899 5 -1.326016 5 0 c
5 1.326016 4.473168 2.597899 3.535534 3.535534 c
2.597899 4.473168 1.326016 5 0 5 c
-1.326016 5 -2.597899 4.473168 -3.535534 3.535534 c
-4.473168 2.597899 -5 1.326016 -5 0 c
-5 -1.326016 -4.473168 -2.597899 -3.535534 -3.535534 c
-2.597899 -4.473168 -1.326016 -5 0 -5 c
cl

gsave
0.000 setgray
fill
grestore
stroke
grestore
} bind def
138.455 38.7376 o
grestore
0.750 setlinewidth
2 setlinecap
gsave
168.9 175 34.16 28.09 clipbox
192.747511 136.147676 m
stroke
grestore
1.000 setlinewidth
0 setlinecap
gsave
168.9 175 34.16 28.09 clipbox
/o {
gsave
newpath
translate
1.0 setlinewidth
1 setlinejoin
0 setlinecap
0 -5 m
1.326016 -5 2.597899 -4.473168 3.535534 -3.535534 c
4.473168 -2.597899 5 -1.326016 5 0 c
5 1.326016 4.473168 2.597899 3.535534 3.535534 c
2.597899 4.473168 1.326016 5 0 5 c
-1.326016 5 -2.597899 4.473168 -3.535534 3.535534 c
-4.473168 2.597899 -5 1.326016 -5 0 c
-5 -1.326016 -4.473168 -2.597899 -3.535534 -3.535534 c
-2.597899 -4.473168 -1.326016 -5 0 -5 c
cl

gsave
0.000 setgray
fill
grestore
stroke
grestore
} bind def
192.748 136.148 o
grestore
0.750 setlinewidth
[2.775 1.2] 0 setdash
gsave
168.9 175 34.16 28.09 clipbox
195.363778 115.5625 m
195.209192 120.606922 l
194.746057 125.631032 l
193.976236 130.6146 l
192.90283 135.537558 l
191.530162 140.380084 l
189.863758 145.122678 l
187.910328 149.746243 l
185.677739 154.232163 l
183.17498 158.562374 l
180.412128 162.719439 l
177.40031 166.68662 l
174.151651 170.447942 l
170.679235 173.98826 l
166.997042 177.293318 l
163.1199 180.349808 l
159.06342 183.145422 l
154.843937 185.668903 l
150.47844 187.910091 l
145.98451 189.859961 l
141.380239 191.510661 l
136.684169 192.855544 l
131.91521 193.889196 l
127.092562 194.607453 l
122.235647 195.007425 l
117.364021 195.0875 l
112.4973 194.847356 l
107.655081 194.28796 l
102.856862 193.411564 l
98.121964 192.221697 l
93.469451 190.723151 l
88.918059 188.921959 l
84.486114 186.825375 l
80.191462 184.44184 l
76.051397 181.780953 l
72.082588 178.853427 l
68.301016 175.671051 l
64.721909 172.246639 l
61.359679 168.59398 l
58.227864 164.727782 l
55.339075 160.663613 l
52.704943 156.417837 l
50.336076 152.007552 l
48.242013 147.450515 l
46.431184 142.765076 l
44.910882 137.970102 l
43.687229 133.084901 l
42.765152 128.129143 l
42.148363 123.122783 l
41.839347 118.085982 l
41.839347 113.039018 l
42.148363 108.002217 l
42.765152 102.995857 l
43.687229 98.040099 l
44.910882 93.154898 l
46.431184 88.359924 l
48.242013 83.674485 l
50.336076 79.117448 l
52.704943 74.707163 l
55.339075 70.461387 l
58.227864 66.397218 l
61.359679 62.53102 l
64.721909 58.878361 l
68.301016 55.453949 l
72.082588 52.271573 l
76.051397 49.344047 l
80.191462 46.68316 l
84.486114 44.299625 l
88.918059 42.203041 l
93.469451 40.401849 l
98.121964 38.903303 l
102.856862 37.713436 l
107.655081 36.83704 l
112.4973 36.277644 l
117.364021 36.0375 l
122.235647 36.117575 l
127.092562 36.517547 l
131.91521 37.235804 l
136.684169 38.269456 l
141.380239 39.614339 l
145.98451 41.265039 l
150.47844 43.214909 l
154.843937 45.456097 l
159.06342 47.979578 l
163.1199 50.775192 l
166.997042 53.831682 l
170.679235 57.13674 l
174.151651 60.677058 l
177.40031 64.43838 l
180.412128 68.405561 l
183.17498 72.562626 l
185.677739 76.892837 l
187.910328 81.378757 l
189.863758 86.002322 l
191.530162 90.744916 l
192.90283 95.587442 l
193.976236 100.5104 l
194.746057 105.493968 l
195.209192 110.518078 l
195.363778 115.5625 l
stroke
grestore
1.000 setlinewidth
0 setlinejoin
2 setlinecap
[] 0 setdash
gsave
34.163125 28.085 m
34.163125 203.04 l
stroke
grestore
gsave
203.04 28.085 m
203.04 203.04 l
stroke
grestore
gsave
34.163125 28.085 m
203.04 28.085 l
stroke
grestore
gsave
34.163125 203.04 m
203.04 203.04 l
stroke
grestore

end
showpage
